Summarise patient-level drug utilisation in data mapped to the OMOP Common Data Model • DrugUtilisation
…
Add strata

All summarise functions have the option to add strata. Strata will always point to preexisting columns. Here we can see an example where we create a age_group and sex columns using PatientProfiles and then we use it as strata

library(PatientProfiles)
x <- x %>%
  addAge(cdm, ageGroup = list(c(0, 19), c(20, 39), c(40, 59), c(60, 79), c(80, 150))) %>%
  addSex(cdm)
summariseIndication(x, cdm, strata = list("age" = "age_group", "sex" = "sex", "age & sex" = c("age_group", "sex")))
#> # A tibble: 84 × 10
#>    cohort_name     strata_name strata_level indication_gap indication_name count
#>    <chr>           <chr>       <chr>                 <dbl> <chr>           <chr>
#>  1 Ingredient: ac… age         0 to 19                   0 no indication   <NA> 
#>  2 Ingredient: ac… age         0 to 19                  30 no indication   <NA> 
#>  3 Ingredient: ac… age         0 to 19                 365 influenza       <NA> 
#>  4 Ingredient: ac… age         0 to 19                 365 no indication   <NA> 
#>  5 Ingredient: ac… age         0 to 19                 365 unknown indica… <NA> 
#>  6 Ingredient: ac… age         0 to 19                 365 headache        <NA> 
#>  7 Ingredient: ac… age         20 to 39                  0 no indication   <NA> 
#>  8 Ingredient: ac… age         20 to 39                 30 no indication   <NA> 
#>  9 Ingredient: ac… age         20 to 39                365 headache        <NA> 
#> 10 Ingredient: ac… age         20 to 39                365 influenza       <NA> 
#> # ℹ 74 more rows
#> # ℹ 4 more variables: denominator <chr>, `%` <chr>, cdm_name <chr>,
#> #   generated_by <chr>
…
You can summarise the drug use using summariseDrugUse function

#summariseDrugUse(x, cdm)

Summarise patient characteristics

You can summarise the patient characteristics with summariseTableOne function:

summariseTableOne(
  x, cdm, ageGroup = list(c(0, 24), c(25, 49), c(50, 74), c(75, 150)),
  windowVisitOcurrence = c(-365, 0),
  covariates = list("indications_cohort" = c(-365, 0))
)
#> # A tibble: 34 × 9
#>    cohort_name strata_name strata_level variable variable_classificat…¹ estimate
#>    <chr>       <chr>       <chr>        <chr>    <chr>                  <chr>   
#>  1 Ingredient… overall     <NA>         number … <NA>                   count   
#>  2 Ingredient… overall     <NA>         number … <NA>                   count   
#>  3 Ingredient… overall     <NA>         age      numeric                median  
#>  4 Ingredient… overall     <NA>         age      numeric                q25     
#>  5 Ingredient… overall     <NA>         age      numeric                q75     
#>  6 Ingredient… overall     <NA>         future_… numeric                median  
#>  7 Ingredient… overall     <NA>         future_… numeric                q25     
#>  8 Ingredient… overall     <NA>         future_… numeric                q75     
#>  9 Ingredient… overall     <NA>         prior_h… numeric                median  
#> 10 Ingredient… overall     <NA>         prior_h… numeric                q25     
#> # ℹ 24 more rows
#> # ℹ abbreviated name: ¹​variable_classification
#> # ℹ 3 more variables: value <chr>, cdm_name <chr>, generated_by <chr>

Summarise patients large scale characteristics

You can summarise the patient characteristics with summariseTableOne function:

summariseLargeScaleCharacteristics(
  x, cdm, tablesToCharacterize = c("drug_exposure", "condition_occurrence")
)
#> # A tibble: 124 × 12
#>    cohort_name        strata_name strata_level table_name window_name concept_id
#>    <chr>              <chr>       <chr>        <chr>      <chr>            <dbl>
#>  1 Ingredient: aceta… overall     <NA>         condition… -inf to -3…     317009
#>  2 Ingredient: aceta… overall     <NA>         condition… -inf to -3…     378253
#>  3 Ingredient: aceta… overall     <NA>         condition… -inf to -3…    4266367
#>  4 Ingredient: aceta… overall     <NA>         condition… -365 to -91     317009
#>  5 Ingredient: aceta… overall     <NA>         condition… -365 to -91     378253
#>  6 Ingredient: aceta… overall     <NA>         condition… -365 to -91    4266367
#>  7 Ingredient: aceta… overall     <NA>         condition… -365 to -31     317009
#>  8 Ingredient: aceta… overall     <NA>         condition… -365 to -31     378253
#>  9 Ingredient: aceta… overall     <NA>         condition… -365 to -31    4266367
#> 10 Ingredient: aceta… overall     <NA>         condition… -90 to -1       317009
#> # ℹ 114 more rows
#> # ℹ 6 more variables: concept_name <chr>, count <chr>, denominator_count <chr>,
#> #   `%` <dbl>, cdm_name <chr>, generated_by <chr>
…
