This function is used to summarise the dose table over multiple cohorts. — summariseTreatmentFromCohort • DrugUtilisation
…
    treatmentCohortName = "cohort2",
    window = list(c(0, 30), c(31, 365))
  )
#> ℹ The following estimates will be computed:
#> • window1_cohort_3: count, percentage
#> • window1_cohort_1: count, percentage
#> • window2_cohort_1: count, percentage
#> • window1_cohort_2: count, percentage
#> • window2_cohort_2: count, percentage
#> • window2_cohort_3: count, percentage
#> • window1_untreated: count, percentage
#> • window2_untreated: count, percentage
#> → Start summary of data, at 2024-07-24 09:02:10.579287
#> ✔ Summary finished, at 2024-07-24 09:02:10.640809
#> # A tibble: 48 × 13
#>    result_id cdm_name group_name  group_level strata_name strata_level
#>        <int> <chr>    <chr>       <chr>       <chr>       <chr>       
#>  1         1 DUS MOCK cohort_name cohort_1    overall     overall     
#>  2         1 DUS MOCK cohort_name cohort_1    overall     overall     
#>  3         1 DUS MOCK cohort_name cohort_1    overall     overall     
#>  4         1 DUS MOCK cohort_name cohort_1    overall     overall     
#>  5         1 DUS MOCK cohort_name cohort_1    overall     overall     
#>  6         1 DUS MOCK cohort_name cohort_1    overall     overall     
#>  7         1 DUS MOCK cohort_name cohort_1    overall     overall     
#>  8         1 DUS MOCK cohort_name cohort_1    overall     overall     
#>  9         1 DUS MOCK cohort_name cohort_1    overall     overall     
#> 10         1 DUS MOCK cohort_name cohort_1    overall     overall     
#> # ℹ 38 more rows
#> # ℹ 7 more variables: variable_name <chr>, variable_level <chr>,
#> #   estimate_name <chr>, estimate_type <chr>, estimate_value <chr>,
#> #   additional_name <chr>, additional_level <chr>
…
