This function is used to summarise the indication table over multiple cohorts. — summariseIndication • DrugUtilisation
…
)
#> ! names of strata will be ignored
#> ℹ The following estimates will be computed:
#> • indication_gap_0_headache: count, percentage
#> • indication_gap_0_asthma: count, percentage
#> • indication_gap_0_none: count, percentage
#> • indication_gap_30_asthma: count, percentage
#> • indication_gap_30_headache: count, percentage
#> • indication_gap_30_none: count, percentage
#> • indication_gap_365_asthma: count, percentage
#> • indication_gap_365_headache: count, percentage
#> • indication_gap_365_none: count, percentage
#> → Start summary of data, at 2024-07-05 11:38:49.879226
#> ✔ Summary finished, at 2024-07-05 11:38:50.099682
#> # A tibble: 120 × 13
#>    result_id cdm_name group_name  group_level   strata_name strata_level
#>        <int> <chr>    <chr>       <chr>         <chr>       <chr>       
#>  1         1 DUS MOCK cohort_name acetaminophen overall     overall     
#>  2         1 DUS MOCK cohort_name acetaminophen overall     overall     
#>  3         1 DUS MOCK cohort_name acetaminophen overall     overall     
#>  4         1 DUS MOCK cohort_name acetaminophen overall     overall     
#>  5         1 DUS MOCK cohort_name acetaminophen overall     overall     
#>  6         1 DUS MOCK cohort_name acetaminophen overall     overall     
#>  7         1 DUS MOCK cohort_name acetaminophen overall     overall     
#>  8         1 DUS MOCK cohort_name acetaminophen overall     overall     
#>  9         1 DUS MOCK cohort_name acetaminophen overall     overall     
#> 10         1 DUS MOCK cohort_name acetaminophen overall     overall     
#> # ℹ 110 more rows
#> # ℹ 7 more variables: variable_name <chr>, variable_level <chr>,
#> #   estimate_name <chr>, estimate_type <chr>, estimate_value <chr>,
#> #   additional_name <chr>, additional_level <chr>
…
