Add indications to Drug Utilisation Cohort • DrugUtilisation
…
Summarise indications with summariseIndication()

To create a summary table of the indications cohort, you can use the
summariseIndication() function.

cdm[["acetaminophen_users"]] %>%
  addIndication(
    cdm = cdm, 
    indicationCohortName = "indications_cohort",
    indicationGap =  c(0, 30, 365),
    unknownIndicationTable =  c("condition_occurrence")
  ) %>%
  summariseIndication(cdm) %>%
  select("variable_name", "estimate_name", "estimate_value")
#> # A tibble: 26 × 3
#>    variable_name            estimate_name estimate_value  
#>    <chr>                    <chr>         <chr>           
#>  1 number subjects          count         2679            
#>  2 number records           count         13860           
#>  3 Indication on index date count         2518            
#>  4 Indication on index date percentage    18.1673881673882
#>  5 Indication on index date count         NA              
#>  6 Indication on index date percentage    NA              
#>  7 Indication on index date count         163             
#>  8 Indication on index date percentage    1.17604617604618
#>  9 Indication on index date count         11178           
#> 10 Indication on index date percentage    80.6493506493507
#> # ℹ 16 more rows
…
cdm[["acetaminophen_users"]] %>%
  addDemographics(ageGroup = list(c(0, 19), c(20, 150))) %>%
  addIndication(
    cdm = cdm,
    indicationCohortName = "indications_cohort",
    indicationGap =  c(0),
    unknownIndicationTable =  c("condition_occurrence")
  ) %>%
  summariseIndication(
    cdm,
    strata = list("age" = "age_group", "sex" = "sex")) %>%
      select("variable_name", "estimate_name", "estimate_value","strata_name")
#> # A tibble: 50 × 4
#>    variable_name            estimate_name estimate_value   strata_name
#>    <chr>                    <chr>         <chr>            <chr>      
#>  1 number subjects          count         2679             overall    
#>  2 number records           count         13860            overall    
#>  3 Indication on index date count         2518             overall    
#>  4 Indication on index date percentage    18.1673881673882 overall    
#>  5 Indication on index date count         NA               overall    
#>  6 Indication on index date percentage    NA               overall    
#>  7 Indication on index date count         163              overall    
#>  8 Indication on index date percentage    1.17604617604618 overall    
#>  9 Indication on index date count         11178            overall    
#> 10 Indication on index date percentage    80.6493506493507 overall    
#> # ℹ 40 more rows
…
