Add drug related information to a Drug Utilisation cohort • DrugUtilisation
…
There is also a function, summariseDoseCoverage(), to
check the coverage of daily dose computation for chosen concept sets and
ingredients.

summariseDoseCoverage(cdm, 1125315)
#> ℹ The following estimates will be computed:
#> • daily_dose: count_missing, percentage_missing, mean, sd, q25, median, q75
#> ! Table is collected to memory as not all requested estimates are supported on
#>   the database side
#> → Start summary of data, at 2024-07-09 08:45:57.589878
#> 
#> ✔ Summary finished, at 2024-07-09 08:45:57.868762
#> # A tibble: 56 × 13
#>    result_id cdm_name group_name      group_level   strata_name strata_level
#>        <int> <chr>    <chr>           <chr>         <chr>       <chr>       
#>  1         1 DUS MOCK ingredient_name acetaminophen overall     overall     
#>  2         1 DUS MOCK ingredient_name acetaminophen overall     overall     
#>  3         1 DUS MOCK ingredient_name acetaminophen overall     overall     
#>  4         1 DUS MOCK ingredient_name acetaminophen overall     overall     
#>  5         1 DUS MOCK ingredient_name acetaminophen overall     overall     
#>  6         1 DUS MOCK ingredient_name acetaminophen overall     overall     
#>  7         1 DUS MOCK ingredient_name acetaminophen overall     overall     
#>  8         1 DUS MOCK ingredient_name acetaminophen overall     overall     
#>  9         1 DUS MOCK ingredient_name acetaminophen unit        milligram   
#> 10         1 DUS MOCK ingredient_name acetaminophen unit        milligram   
#> # ℹ 46 more rows
#> # ℹ 7 more variables: variable_name <chr>, variable_level <chr>,
#> #   estimate_name <chr>, estimate_type <chr>, estimate_value <chr>,
#> #   additional_name <chr>, additional_level <chr>
…
Summarise drug usage information with summariseDrugUse()
function

This functions creates a tibble summarising the dose table across
multiple cohorts. See an example below:

cdm[["acetaminophen_example1"]] <- cdm[["acetaminophen_example1"]] %>% 
  addDrugUse(
    cdm = cdm,
    ingredientConceptId = 1125315
  )

summariseDrugUse(cdm[["acetaminophen_example1"]])
#> # A tibble: 101 × 13
#>    result_id cdm_name group_name  group_level   strata_name strata_level
#>        <int> <chr>    <chr>       <chr>         <chr>       <chr>       
#>  1         1 DUS MOCK cohort_name acetaminophen overall     overall     
#>  2         1 DUS MOCK cohort_name acetaminophen overall     overall     
#>  3         1 DUS MOCK cohort_name acetaminophen overall     overall     
#>  4         1 DUS MOCK cohort_name acetaminophen overall     overall     
#>  5         1 DUS MOCK cohort_name acetaminophen overall     overall     
#>  6         1 DUS MOCK cohort_name acetaminophen overall     overall     
#>  7         1 DUS MOCK cohort_name acetaminophen overall     overall     
#>  8         1 DUS MOCK cohort_name acetaminophen overall     overall     
#>  9         1 DUS MOCK cohort_name acetaminophen overall     overall     
#> 10         1 DUS MOCK cohort_name acetaminophen overall     overall     
#> # ℹ 91 more rows
#> # ℹ 7 more variables: variable_name <chr>, variable_level <chr>,
#> #   estimate_name <chr>, estimate_type <chr>, estimate_value <chr>,
#> #   additional_name <chr>, additional_level <chr>

strata parameter

We can also stratify our cohort and calculate the estimates within
each strata group by using the strata parameter.

cdm[["acetaminophen_example1"]] <- cdm[["acetaminophen_example1"]] %>%
  addSex() # Function from PatientProfiles

summariseDrugUse(cdm[["acetaminophen_example1"]],
                 strata = list("sex" = "sex")) 
#> # A tibble: 303 × 13
#>    result_id cdm_name group_name  group_level   strata_name strata_level
#>        <int> <chr>    <chr>       <chr>         <chr>       <chr>       
#>  1         1 DUS MOCK cohort_name acetaminophen overall     overall     
#>  2         1 DUS MOCK cohort_name acetaminophen overall     overall     
#>  3         1 DUS MOCK cohort_name acetaminophen overall     overall     
#>  4         1 DUS MOCK cohort_name acetaminophen overall     overall     
#>  5         1 DUS MOCK cohort_name acetaminophen overall     overall     
#>  6         1 DUS MOCK cohort_name acetaminophen overall     overall     
#>  7         1 DUS MOCK cohort_name acetaminophen overall     overall     
#>  8         1 DUS MOCK cohort_name acetaminophen overall     overall     
#>  9         1 DUS MOCK cohort_name acetaminophen overall     overall     
#> 10         1 DUS MOCK cohort_name acetaminophen overall     overall     
#> # ℹ 293 more rows
#> # ℹ 7 more variables: variable_name <chr>, variable_level <chr>,
#> #   estimate_name <chr>, estimate_type <chr>, estimate_value <chr>,
#> #   additional_name <chr>, additional_level <chr>
…
