Add treatment summary to a Drug Utilisation cohort • DrugUtilisation
…
treatmentCohortName: name of the treatment cohort’s
table.

window: list of the windows where to summarise the
treatments.

See an example of its usage below, where we use
summariseTreatmentFromCohort() to summarise treatments
defined in cohort2 in the cohorts defined in
cohort1.

summariseTreatmentFromCohort(cohort = cdm$cohort1,
                   treatmentCohortName = c("cohort2"),
                   window = list(c(0,0), c(1,30)))
#> # A tibble: 48 × 13
#>    result_id cdm_name group_name  group_level strata_name strata_level
#>        <int> <chr>    <chr>       <chr>       <chr>       <chr>       
#>  1         1 DUS MOCK cohort_name asthma      overall     overall     
#>  2         1 DUS MOCK cohort_name asthma      overall     overall     
#>  3         1 DUS MOCK cohort_name asthma      overall     overall     
#>  4         1 DUS MOCK cohort_name asthma      overall     overall     
#>  5         1 DUS MOCK cohort_name asthma      overall     overall     
#>  6         1 DUS MOCK cohort_name asthma      overall     overall     
#>  7         1 DUS MOCK cohort_name asthma      overall     overall     
#>  8         1 DUS MOCK cohort_name asthma      overall     overall     
#>  9         1 DUS MOCK cohort_name asthma      overall     overall     
#> 10         1 DUS MOCK cohort_name asthma      overall     overall     
#> # ℹ 38 more rows
#> # ℹ 7 more variables: variable_name <chr>, variable_level <chr>,
#> #   estimate_name <chr>, estimate_type <chr>, estimate_value <chr>,
#> #   additional_name <chr>, additional_level <chr>
…
We can also stratify our cohort and calculate the estimates within
each strata group by using the strata parameter.

cdm[["cohort1"]] <- cdm[["cohort1"]] %>%
  addSex() %>%
  addAge(ageGroup = list("<40" = c(0, 39), ">40" = c(40, 150)))

summariseTreatmentFromCohort(cohort = cdm$cohort1,
                   treatmentCohortName = c("cohort2"),
                   window = list(c(0,0)),
                   treatmentCohortId = 1,
                   strata = list("sex" = "sex", "age" = "age_group")
                   )
#> # A tibble: 60 × 13
#>    result_id cdm_name group_name  group_level strata_name strata_level
#>        <int> <chr>    <chr>       <chr>       <chr>       <chr>       
#>  1         1 DUS MOCK cohort_name asthma      age_group   <40         
#>  2         1 DUS MOCK cohort_name asthma      age_group   <40         
#>  3         1 DUS MOCK cohort_name asthma      age_group   <40         
#>  4         1 DUS MOCK cohort_name asthma      age_group   <40         
#>  5         1 DUS MOCK cohort_name asthma      age_group   >40         
#>  6         1 DUS MOCK cohort_name asthma      age_group   >40         
#>  7         1 DUS MOCK cohort_name asthma      age_group   >40         
#>  8         1 DUS MOCK cohort_name asthma      age_group   >40         
#>  9         1 DUS MOCK cohort_name asthma      overall     overall     
#> 10         1 DUS MOCK cohort_name asthma      overall     overall     
#> # ℹ 50 more rows
#> # ℹ 7 more variables: variable_name <chr>, variable_level <chr>,
#> #   estimate_name <chr>, estimate_type <chr>, estimate_value <chr>,
#> #   additional_name <chr>, additional_level <chr>
…
