Use addDrugUse and summariseDrugUse to explore a drug • DrugUtilisation
…
First, let’s use addDrugUse to add drug details to our
“acetaminophen_users” cohort. Then, we can apply
summariseDrugUse to explore the characteristics of the
cohort.

cdm[["acetaminophen_users"]] <- cdm[["acetaminophen_users"]] %>% 
  addDrugUse(
    cdm    = cdm,
    ingredientConceptId = 1125315
  )

summariseDrugUse(cdm[["acetaminophen_users"]])
#> # A tibble: 101 × 11
#>    group_name  group_level   strata_name strata_level variable    variable_level
#>    <chr>       <chr>         <chr>       <chr>        <chr>       <chr>         
#>  1 cohort_name acetaminophen Overall     Overall      number sub… NA            
#>  2 cohort_name acetaminophen Overall     Overall      number rec… NA            
#>  3 cohort_name acetaminophen Overall     Overall      duration    NA            
#>  4 cohort_name acetaminophen Overall     Overall      duration    NA            
#>  5 cohort_name acetaminophen Overall     Overall      duration    NA            
#>  6 cohort_name acetaminophen Overall     Overall      duration    NA            
#>  7 cohort_name acetaminophen Overall     Overall      duration    NA            
#>  8 cohort_name acetaminophen Overall     Overall      duration    NA            
#>  9 cohort_name acetaminophen Overall     Overall      duration    NA            
#> 10 cohort_name acetaminophen Overall     Overall      duration    NA            
#> # ℹ 91 more rows
#> # ℹ 5 more variables: variable_type <chr>, estimate_type <chr>, estimate <chr>,
#> #   cdm_name <chr>, result_type <chr>
strata

We can employ this parameter to stratify our cohort and calculate the
estimates within every strata group.

Let’s use addSex function from “PatientProfiles” to include
a sex column in our cohort. Subsequently, we can use it as a strata
parameter.

cdm[["acetaminophen_users"]] <- cdm[["acetaminophen_users"]] %>%
  addSex(cdm)

summariseDrugUse(cdm[["acetaminophen_users"]],
                 strata = list("sex" = "sex"))
#> # A tibble: 303 × 11
#>    group_name  group_level   strata_name strata_level variable    variable_level
#>    <chr>       <chr>         <chr>       <chr>        <chr>       <chr>         
#>  1 cohort_name acetaminophen Overall     Overall      number sub… NA            
#>  2 cohort_name acetaminophen Overall     Overall      number rec… NA            
#>  3 cohort_name acetaminophen Overall     Overall      duration    NA            
#>  4 cohort_name acetaminophen Overall     Overall      duration    NA            
#>  5 cohort_name acetaminophen Overall     Overall      duration    NA            
#>  6 cohort_name acetaminophen Overall     Overall      duration    NA            
#>  7 cohort_name acetaminophen Overall     Overall      duration    NA            
#>  8 cohort_name acetaminophen Overall     Overall      duration    NA            
#>  9 cohort_name acetaminophen Overall     Overall      duration    NA            
#> 10 cohort_name acetaminophen Overall     Overall      duration    NA            
#> # ℹ 293 more rows
#> # ℹ 5 more variables: variable_type <chr>, estimate_type <chr>, estimate <chr>,
#> #   cdm_name <chr>, result_type <chr>
…
