Add indications to Drug Utilisation Cohort • DrugUtilisation
…
cdm[["acetaminophen_users"]] %>%
  addDemographics(ageGroup = list(c(0, 19), c(20, 150))) %>%
  addIndication(
    cdm = cdm,
    indicationCohortName = "indications_cohort",
    indicationGap =  c(0),
    unknownIndicationTable =  c("condition_occurrence")
  ) %>%
  summariseIndication(
    cdm,
    strata = list("age" = "age_group", "sex" = "sex")) %>%
      select("variable", "estimate_type", "estimate","strata_name")
#> # A tibble: 30 × 4
#>    variable                    estimate_type estimate strata_name
#>    <chr>                       <chr>         <chr>    <chr>      
#>  1 number subjects             count         2679     Overall    
#>  2 number records              count         13860    Overall    
#>  3 indication_gap_0_bronchitis count         2518     Overall    
#>  4 indication_gap_0_sinusitis  count         1        Overall    
#>  5 indication_gap_0_none       count         163      Overall    
#>  6 indication_gap_0_unknown    count         11178    Overall    
#>  7 number subjects             count         2414     age_group  
#>  8 number records              count         6070     age_group  
#>  9 indication_gap_0_bronchitis count         1817     age_group  
#> 10 indication_gap_0_sinusitis  count         1        age_group  
#> # ℹ 20 more rows
…
