Add indications to Drug Utilisation Cohort • DrugUtilisation
…
Summarise indications with summariseIndication()

To create a summary table of the indications cohort, you can use the
summariseIndication() function. It contain similar
arguments to addIndication(), but it return a summary table
of the indications.

cdm[["acetaminophen_users"]] |>
  summariseIndication(
    indicationCohortName = "indications_cohort",
    indicationWindow =  list(c(0,0),c(-30,0),c(-365,0)),
    unknownIndicationTable =  c("condition_occurrence")
  )
#> # A tibble: 30 × 13
#>    result_id cdm_name            group_name group_level strata_name strata_level
#>        <int> <chr>               <chr>      <chr>       <chr>       <chr>       
#>  1         1 Synthea synthetic … cohort_na… 161_acetam… overall     overall     
#>  2         1 Synthea synthetic … cohort_na… 161_acetam… overall     overall     
#>  3         1 Synthea synthetic … cohort_na… 161_acetam… overall     overall     
#>  4         1 Synthea synthetic … cohort_na… 161_acetam… overall     overall     
#>  5         1 Synthea synthetic … cohort_na… 161_acetam… overall     overall     
#>  6         1 Synthea synthetic … cohort_na… 161_acetam… overall     overall     
#>  7         1 Synthea synthetic … cohort_na… 161_acetam… overall     overall     
#>  8         1 Synthea synthetic … cohort_na… 161_acetam… overall     overall     
#>  9         1 Synthea synthetic … cohort_na… 161_acetam… overall     overall     
#> 10         1 Synthea synthetic … cohort_na… 161_acetam… overall     overall     
#> # ℹ 20 more rows
#> # ℹ 7 more variables: variable_name <chr>, variable_level <chr>,
#> #   estimate_name <chr>, estimate_type <chr>, estimate_value <chr>,
#> #   additional_name <chr>, additional_level <chr>

You can also summarise the indications by using the
strata argument in the summariseIndication()
function. In the example below, it is summarized by
ageGroup and sex.

cdm[["acetaminophen_users"]] |>
  addDemographics(ageGroup = list(c(0, 19), c(20, 150))) |>
  summariseIndication(
    strata = list("age" = "age_group", "sex" = "sex"),
    indicationCohortName = "indications_cohort",
    indicationWindow =  list(c(0,0),c(-30,0),c(-365,0)),
    unknownIndicationTable =  c("condition_occurrence")
  )
#> # A tibble: 138 × 13
#>    result_id cdm_name            group_name group_level strata_name strata_level
#>        <int> <chr>               <chr>      <chr>       <chr>       <chr>       
#>  1         1 Synthea synthetic … cohort_na… 161_acetam… overall     overall     
#>  2         1 Synthea synthetic … cohort_na… 161_acetam… overall     overall     
#>  3         1 Synthea synthetic … cohort_na… 161_acetam… overall     overall     
#>  4         1 Synthea synthetic … cohort_na… 161_acetam… overall     overall     
#>  5         1 Synthea synthetic … cohort_na… 161_acetam… overall     overall     
#>  6         1 Synthea synthetic … cohort_na… 161_acetam… overall     overall     
#>  7         1 Synthea synthetic … cohort_na… 161_acetam… overall     overall     
#>  8         1 Synthea synthetic … cohort_na… 161_acetam… overall     overall     
#>  9         1 Synthea synthetic … cohort_na… 161_acetam… overall     overall     
#> 10         1 Synthea synthetic … cohort_na… 161_acetam… overall     overall     
#> # ℹ 128 more rows
#> # ℹ 7 more variables: variable_name <chr>, variable_level <chr>,
#> #   estimate_name <chr>, estimate_type <chr>, estimate_value <chr>,
#> #   additional_name <chr>, additional_level <chr>
…
